{
  "openapi" : "3.0.0",
  "info" : {
    "title" : "Hash2Subscriber API",
    "description" : "Hash to subscriber conversion API to implement",
    "contact" : {
      "email" : "you@your-company.com"
    },
    "license" : {
      "name" : "Apache 2.0",
      "url" : "http://www.apache.org/licenses/LICENSE-2.0.html"
    },
    "version" : "1.0.0"
  },
  "servers" : [ {
    "url" : "https://virtserver.swaggerhub.com/lucasfilippi/kontiki_hash2email/1.0.0",
    "description" : "SwaggerHub API Auto Mocking"
  }, {
    "url" : "https://your-domain.tld/hash2subscriber/1.0.0",
    "description" : "You must provide an url matching the following pattern"
  } ],
  "security" : [ {
    "ApiKeyAuth" : [ ]
  } ],
  "paths" : {
    "/sha256/{hash}" : {
      "get" : {
        "summary" : "Return optin subscriber by sha256 hashed email",
        "description" : "You need to return the Subsriber according to the sha256 hash \n",
        "operationId" : "sha256",
        "parameters" : [ {
          "name" : "hash",
          "in" : "path",
          "description" : "lowercase email encoded with sha256 algorithm",
          "required" : true,
          "style" : "simple",
          "explode" : false,
          "schema" : {
            "maxLength" : 64,
            "minLength" : 64,
            "type" : "string"
          }
        } ],
        "responses" : {
          "200" : {
            "description" : "Subscriber matching hash",
            "content" : {
              "application/json" : {
                "schema" : {
                  "type" : "array",
                  "items" : {
                    "$ref" : "#/components/schemas/Subscriber"
                  }
                }
              }
            }
          },
          "400" : {
            "description" : "bad input parameter"
          },
          "404" : {
            "description" : "A Subscriber with the specified sha256 was not found"
          },
          "410" : {
            "description" : "The Subscriber with the specified sha256 is not optin anymore."
          }
        }
      }
    },
    "/md5/{hash}" : {
      "get" : {
        "summary" : "Return optin subscriber by md5 hashed email",
        "description" : "You need to return the Subsriber according to the md5 hash \n",
        "operationId" : "md5",
        "parameters" : [ {
          "name" : "hash",
          "in" : "path",
          "description" : "lowercase email encoded with md5 algorithm",
          "required" : true,
          "style" : "simple",
          "explode" : false,
          "schema" : {
            "maxLength" : 32,
            "minLength" : 32,
            "type" : "string"
          }
        } ],
        "responses" : {
          "200" : {
            "description" : "Subscriber matching hash",
            "content" : {
              "application/json" : {
                "schema" : {
                  "type" : "array",
                  "items" : {
                    "$ref" : "#/components/schemas/Subscriber"
                  }
                }
              }
            }
          },
          "400" : {
            "description" : "bad input parameter"
          },
          "404" : {
            "description" : "A Subscriber with the specified sha256 was not found"
          },
          "410" : {
            "description" : "The Subscriber with the specified sha256 is not optin anymore."
          }
        }
      }
    }
  },
  "components" : {
    "schemas" : {
      "Subscriber" : {
        "required" : [ "email" ],
        "type" : "object",
        "properties" : {
          "email" : {
            "type" : "string",
            "format" : "email",
            "example" : "subscriber@domain.tld"
          },
          "firstName" : {
            "type" : "string",
            "example" : "John"
          },
          "lastName" : {
            "type" : "string",
            "example" : "Doe"
          },
          "gender" : {
            "type" : "string",
            "enum" : [ "M", "F" ]
          }
        }
      }
    },
    "responses" : {
      "Found" : {
        "description" : "Subscriber matching hash",
        "content" : {
          "application/json" : {
            "schema" : {
              "type" : "array",
              "items" : {
                "$ref" : "#/components/schemas/Subscriber"
              }
            }
          }
        }
      },
      "Malformed" : {
        "description" : "bad input parameter"
      },
      "NotFound" : {
        "description" : "A Subscriber with the specified sha256 was not found"
      },
      "Gone" : {
        "description" : "The Subscriber with the specified sha256 is not optin anymore."
      }
    },
    "securitySchemes" : {
      "ApiKeyAuth" : {
        "type" : "apiKey",
        "name" : "X-API-KEY",
        "in" : "header"
      }
    }
  }
}